{
  "project_info": {
    "project_number": "748336316919",
    "firebase_url": "https://readtext-138d7.firebaseio.com",
    "project_id": "readtext-138d7",
    "storage_bucket": "readtext-138d7.appspot.com"
  },
  "client": [
    {
      "client_info": {
        "mobilesdk_app_id": "1:748336316919:android:0b480781fe7229f2",
        "android_client_info": {
          "package_name": "com.example.readtext"
        }
      },
      "oauth_client": [
        {
          "client_id": "748336316919-tr67jtmebt9ubrdergkosnorqk4g6c4e.apps.googleusercontent.com",
          "client_type": 3
        }
      ],
      "api_key": [
        {
          "current_key": "AIzaSyCdKqRfGDlbP3Sd3o-V3Y8q7LAXPUMa2uQ"
        }
      ],
      "services": {
        "analytics_service": {
          "status": 1
        },
        "appinvite_service": {
          "status": 1,
          "other_platform_oauth_client": []
        },
        "ads_service": {
          "status": 2
        }
      }
    }
  ],
  "configuration_version": "1"
}